{
"instructions_readme": "1) Open Chrome, 2) go to chrome://tracing, 3) click Load, 4) navigate to this file.",

"traceEvents":[
{ "pid": 1, "tid": 1, "ph": "M", "name": "thread_name", "args": { "name": "" } },
{ "pid": 1, "tid": 1, "ts": 2.0000000949949, "dur": 12408228.515625, "ph": "X", "name": "il2cpp.exe", "args": { "durationMS": 12408.228515625, "detail": "" } },
{ "pid": 1, "tid": 1, "ts": 138648.986816406, "dur": 12266855.46875, "ph": "X", "name": "ConvertAssemblies", "args": { "durationMS": 12266.85546875, "detail": "" } },
{ "pid": 1, "tid": 1, "ts": 165871.002197266, "dur": 68664.0014648438, "ph": "X", "name": "Collect assemblies to convert", "args": { "durationMS": 68.6640014648438, "detail": "" } },
{ "pid": 1, "tid": 1, "ts": 234673.99597168, "dur": 72541.9998168945, "ph": "X", "name": "RegisterCorlib", "args": { "durationMS": 72.5419998168945, "detail": "" } },
{ "pid": 1, "tid": 1, "ts": 307521.97265625, "dur": 64696.9985961914, "ph": "X", "name": "PreProcessIL", "args": { "durationMS": 64.6969985961914, "detail": "" } },
{ "pid": 1, "tid": 1, "ts": 307521.97265625, "dur": 16861.0000610352, "ph": "X", "name": "Inject base types and finalizers into COM and Windows Runtime types", "args": { "durationMS": 16.8610000610352, "detail": "" } },
{ "pid": 1, "tid": 1, "ts": 307864.013671875, "dur": 11537.0006561279, "ph": "X", "name": "ModifyCOMAndWindowsRuntimeTypes in assembly", "args": { "durationMS": 11.5370006561279, "detail": "mscorlib" } },
{ "pid": 1, "tid": 1, "ts": 319401.977539062, "dur": 2230.00001907349, "ph": "X", "name": "ModifyCOMAndWindowsRuntimeTypes in assembly", "args": { "durationMS": 2.23000001907349, "detail": "System" } },
{ "pid": 1, "tid": 1, "ts": 322052.978515625, "dur": 1140.99991321564, "ph": "X", "name": "ModifyCOMAndWindowsRuntimeTypes in assembly", "args": { "durationMS": 1.14099991321564, "detail": "UnityEngine.CoreModule" } },
{ "pid": 1, "tid": 1, "ts": 323494.018554688, "dur": 714.999973773956, "ph": "X", "name": "ModifyCOMAndWindowsRuntimeTypes in assembly", "args": { "durationMS": 0.714999973773956, "detail": "UnityEngine.UI" } },
{ "pid": 1, "tid": 1, "ts": 324384.002685547, "dur": 47833.9996337891, "ph": "X", "name": "ApplyDefaultMarshalAsAttribute", "args": { "durationMS": 47.8339996337891, "detail": "" } },
{ "pid": 1, "tid": 1, "ts": 324736.999511719, "dur": 28518.0015563965, "ph": "X", "name": "ApplyDefaultMarshalAsAttributeVisitor in assembly", "args": { "durationMS": 28.5180015563965, "detail": "mscorlib" } },
{ "pid": 1, "tid": 1, "ts": 353256.988525391, "dur": 12355.0004959106, "ph": "X", "name": "ApplyDefaultMarshalAsAttributeVisitor in assembly", "args": { "durationMS": 12.3550004959106, "detail": "System" } },
{ "pid": 1, "tid": 1, "ts": 365991.973876953, "dur": 1738.00003528595, "ph": "X", "name": "ApplyDefaultMarshalAsAttributeVisitor in assembly", "args": { "durationMS": 1.73800003528595, "detail": "UnityEngine.CoreModule" } },
{ "pid": 1, "tid": 1, "ts": 368691.009521484, "dur": 642.000019550323, "ph": "X", "name": "ApplyDefaultMarshalAsAttributeVisitor in assembly", "args": { "durationMS": 0.642000019550323, "detail": "UnityEngine.AndroidJNIModule" } },
{ "pid": 1, "tid": 1, "ts": 369544.006347656, "dur": 1641.99995994568, "ph": "X", "name": "ApplyDefaultMarshalAsAttributeVisitor in assembly", "args": { "durationMS": 1.64199995994568, "detail": "UnityEngine.UI" } },
{ "pid": 1, "tid": 1, "ts": 371294.006347656, "dur": 919.000029563904, "ph": "X", "name": "ApplyDefaultMarshalAsAttributeVisitor in assembly", "args": { "durationMS": 0.919000029563904, "detail": "Assembly-CSharp" } },
{ "pid": 1, "tid": 1, "ts": 372404.968261719, "dur": 6789.99996185303, "ph": "X", "name": "WriteResources", "args": { "durationMS": 6.78999996185303, "detail": "" } },
{ "pid": 1, "tid": 1, "ts": 379425.994873047, "dur": 29194.0002441406, "ph": "X", "name": "CopyEtcFolder", "args": { "durationMS": 29.1940002441406, "detail": "" } },
{ "pid": 1, "tid": 1, "ts": 409110.015869141, "dur": 277243.011474609, "ph": "X", "name": "PreProcessStage", "args": { "durationMS": 277.243011474609, "detail": "" } },
{ "pid": 1, "tid": 1, "ts": 686359.985351562, "dur": 2209.99979972839, "ph": "X", "name": "Debugger Sequence Points", "args": { "durationMS": 2.20999979972839, "detail": "" } },
{ "pid": 1, "tid": 1, "ts": 689244.995117188, "dur": 1529140.99121094, "ph": "X", "name": "Generics Collection", "args": { "durationMS": 1529.14099121094, "detail": "" } },
{ "pid": 1, "tid": 1, "ts": 689244.995117188, "dur": 1521338.01269531, "ph": "X", "name": "GenericsCollector.Collect", "args": { "durationMS": 1521.33801269531, "detail": "" } },
{ "pid": 1, "tid": 1, "ts": 2210583.984375, "dur": 6064.00012969971, "ph": "X", "name": "CollectGenericVirtualMethods.Collect", "args": { "durationMS": 6.06400012969971, "detail": "" } },
{ "pid": 1, "tid": 1, "ts": 2216648.92578125, "dur": 1383.99994373322, "ph": "X", "name": "AddExtraTypes", "args": { "durationMS": 1.38399994373322, "detail": "" } },
{ "pid": 1, "tid": 1, "ts": 2218386.96289062, "dur": 1980.99994659424, "ph": "X", "name": "Add Windows Runtime type names", "args": { "durationMS": 1.98099994659424, "detail": "" } },
{ "pid": 1, "tid": 1, "ts": 2218386.96289062, "dur": 1980.99994659424, "ph": "X", "name": "Add Windows Runtime type names", "args": { "durationMS": 1.98099994659424, "detail": "" } },
{ "pid": 1, "tid": 1, "ts": 2232988.03710938, "dur": 5197155.76171875, "ph": "X", "name": "AllAssemblyConversion", "args": { "durationMS": 5197.15576171875, "detail": "" } },
{ "pid": 1, "tid": 1, "ts": 2239007.08007812, "dur": 2788126.953125, "ph": "X", "name": "Convert", "args": { "durationMS": 2788.126953125, "detail": "mscorlib" } },
{ "pid": 1, "tid": 1, "ts": 2239008.05664062, "dur": 2788125.73242188, "ph": "X", "name": "Code", "args": { "durationMS": 2788.12573242188, "detail": "" } },
{ "pid": 1, "tid": 1, "ts": 2239653.3203125, "dur": 2787480.22460938, "ph": "X", "name": "Methods", "args": { "durationMS": 2787.48022460938, "detail": "Definitions" } },
{ "pid": 1, "tid": 1, "ts": 5031333.0078125, "dur": 535622.009277344, "ph": "X", "name": "Convert", "args": { "durationMS": 535.622009277344, "detail": "System" } },
{ "pid": 1, "tid": 1, "ts": 5031334.9609375, "dur": 535619.995117188, "ph": "X", "name": "Code", "args": { "durationMS": 535.619995117188, "detail": "" } },
{ "pid": 1, "tid": 1, "ts": 5031420.8984375, "dur": 535533.996582031, "ph": "X", "name": "Methods", "args": { "durationMS": 535.533996582031, "detail": "Definitions" } },
{ "pid": 1, "tid": 1, "ts": 5571298.828125, "dur": 9791.99981689453, "ph": "X", "name": "Convert", "args": { "durationMS": 9.79199981689453, "detail": "Mono.Security" } },
{ "pid": 1, "tid": 1, "ts": 5571300.78125, "dur": 9788.99955749512, "ph": "X", "name": "Code", "args": { "durationMS": 9.78899955749512, "detail": "" } },
{ "pid": 1, "tid": 1, "ts": 5571309.08203125, "dur": 9781.0001373291, "ph": "X", "name": "Methods", "args": { "durationMS": 9.7810001373291, "detail": "Definitions" } },
{ "pid": 1, "tid": 1, "ts": 5585319.82421875, "dur": 33618.9994812012, "ph": "X", "name": "Convert", "args": { "durationMS": 33.6189994812012, "detail": "System.Xml" } },
{ "pid": 1, "tid": 1, "ts": 5585320.80078125, "dur": 33618.0000305176, "ph": "X", "name": "Code", "args": { "durationMS": 33.6180000305176, "detail": "" } },
{ "pid": 1, "tid": 1, "ts": 5585335.9375, "dur": 33603.0006408691, "ph": "X", "name": "Methods", "args": { "durationMS": 33.6030006408691, "detail": "Definitions" } },
{ "pid": 1, "tid": 1, "ts": 5623729.00390625, "dur": 2811.00010871887, "ph": "X", "name": "Convert", "args": { "durationMS": 2.81100010871887, "detail": "System.Configuration" } },
{ "pid": 1, "tid": 1, "ts": 5623729.98046875, "dur": 2809.99994277954, "ph": "X", "name": "Code", "args": { "durationMS": 2.80999994277954, "detail": "" } },
{ "pid": 1, "tid": 1, "ts": 5623742.1875, "dur": 2796.99993133545, "ph": "X", "name": "Methods", "args": { "durationMS": 2.79699993133545, "detail": "Definitions" } },
{ "pid": 1, "tid": 1, "ts": 5630982.91015625, "dur": 887.000024318695, "ph": "X", "name": "Convert", "args": { "durationMS": 0.887000024318695, "detail": "System.Core" } },
{ "pid": 1, "tid": 1, "ts": 5630984.375, "dur": 884.999990463257, "ph": "X", "name": "Code", "args": { "durationMS": 0.884999990463257, "detail": "" } },
{ "pid": 1, "tid": 1, "ts": 5630995.1171875, "dur": 874.000012874603, "ph": "X", "name": "Methods", "args": { "durationMS": 0.874000012874603, "detail": "Definitions" } },
{ "pid": 1, "tid": 1, "ts": 5637640.13671875, "dur": 14348.0005264282, "ph": "X", "name": "Convert", "args": { "durationMS": 14.3480005264282, "detail": "UnityEngine.SharedInternalsModule" } },
{ "pid": 1, "tid": 1, "ts": 5637641.11328125, "dur": 14347.0001220703, "ph": "X", "name": "Code", "args": { "durationMS": 14.3470001220703, "detail": "" } },
{ "pid": 1, "tid": 1, "ts": 5637658.69140625, "dur": 14328.0000686646, "ph": "X", "name": "Methods", "args": { "durationMS": 14.3280000686646, "detail": "Definitions" } },
{ "pid": 1, "tid": 1, "ts": 5656928.7109375, "dur": 308319.000244141, "ph": "X", "name": "Convert", "args": { "durationMS": 308.319000244141, "detail": "UnityEngine.CoreModule" } },
{ "pid": 1, "tid": 1, "ts": 5656929.6875, "dur": 308318.023681641, "ph": "X", "name": "Code", "args": { "durationMS": 308.318023681641, "detail": "" } },
{ "pid": 1, "tid": 1, "ts": 5657169.921875, "dur": 308076.995849609, "ph": "X", "name": "Methods", "args": { "durationMS": 308.076995849609, "detail": "Definitions" } },
{ "pid": 1, "tid": 1, "ts": 5969407.71484375, "dur": 395.000010728836, "ph": "X", "name": "Convert", "args": { "durationMS": 0.395000010728836, "detail": "System.Diagnostics.StackTrace" } },
{ "pid": 1, "tid": 1, "ts": 5969409.1796875, "dur": 393.00000667572, "ph": "X", "name": "Code", "args": { "durationMS": 0.39300000667572, "detail": "" } },
{ "pid": 1, "tid": 1, "ts": 5969415.0390625, "dur": 386.999994516373, "ph": "X", "name": "Methods", "args": { "durationMS": 0.386999994516373, "detail": "Definitions" } },
{ "pid": 1, "tid": 1, "ts": 5974154.296875, "dur": 448.000013828278, "ph": "X", "name": "Convert", "args": { "durationMS": 0.448000013828278, "detail": "System.Globalization.Extensions" } },
{ "pid": 1, "tid": 1, "ts": 5974154.78515625, "dur": 446.999996900558, "ph": "X", "name": "Code", "args": { "durationMS": 0.446999996900558, "detail": "" } },
{ "pid": 1, "tid": 1, "ts": 5974161.1328125, "dur": 441.000014543533, "ph": "X", "name": "Methods", "args": { "durationMS": 0.441000014543533, "detail": "Definitions" } },
{ "pid": 1, "tid": 1, "ts": 5979529.296875, "dur": 14213.99974823, "ph": "X", "name": "Convert", "args": { "durationMS": 14.21399974823, "detail": "UnityEngine.TextRenderingModule" } },
{ "pid": 1, "tid": 1, "ts": 5979530.2734375, "dur": 14213.0002975464, "ph": "X", "name": "Code", "args": { "durationMS": 14.2130002975464, "detail": "" } },
{ "pid": 1, "tid": 1, "ts": 5979543.9453125, "dur": 14197.9999542236, "ph": "X", "name": "Methods", "args": { "durationMS": 14.1979999542236, "detail": "Definitions" } },
{ "pid": 1, "tid": 1, "ts": 5997896.97265625, "dur": 17777.9998779297, "ph": "X", "name": "Convert", "args": { "durationMS": 17.7779998779297, "detail": "UnityEngine.AnimationModule" } },
{ "pid": 1, "tid": 1, "ts": 5997898.92578125, "dur": 17776.0009765625, "ph": "X", "name": "Code", "args": { "durationMS": 17.7760009765625, "detail": "" } },
{ "pid": 1, "tid": 1, "ts": 5997917.96875, "dur": 17756.0005187988, "ph": "X", "name": "Methods", "args": { "durationMS": 17.7560005187988, "detail": "Definitions" } },
{ "pid": 1, "tid": 1, "ts": 6019792.96875, "dur": 7272.99976348877, "ph": "X", "name": "Convert", "args": { "durationMS": 7.27299976348877, "detail": "UnityEngine.AudioModule" } },
{ "pid": 1, "tid": 1, "ts": 6019794.921875, "dur": 7270.99990844727, "ph": "X", "name": "Code", "args": { "durationMS": 7.27099990844727, "detail": "" } },
{ "pid": 1, "tid": 1, "ts": 6019804.19921875, "dur": 7262.00008392334, "ph": "X", "name": "Methods", "args": { "durationMS": 7.26200008392334, "detail": "Definitions" } },
{ "pid": 1, "tid": 1, "ts": 6031254.8828125, "dur": 57558.9981079102, "ph": "X", "name": "Convert", "args": { "durationMS": 57.5589981079102, "detail": "UnityEngine.IMGUIModule" } },
{ "pid": 1, "tid": 1, "ts": 6031255.859375, "dur": 57557.9986572266, "ph": "X", "name": "Code", "args": { "durationMS": 57.5579986572266, "detail": "" } },
{ "pid": 1, "tid": 1, "ts": 6031270.5078125, "dur": 57542.9992675781, "ph": "X", "name": "Methods", "args": { "durationMS": 57.5429992675781, "detail": "Definitions" } },
{ "pid": 1, "tid": 1, "ts": 6092945.80078125, "dur": 615.99999666214, "ph": "X", "name": "Convert", "args": { "durationMS": 0.61599999666214, "detail": "UnityEngine.ImageConversionModule" } },
{ "pid": 1, "tid": 1, "ts": 6092946.77734375, "dur": 615.000009536743, "ph": "X", "name": "Code", "args": { "durationMS": 0.615000009536743, "detail": "" } },
{ "pid": 1, "tid": 1, "ts": 6092953.125, "dur": 607.999980449677, "ph": "X", "name": "Methods", "args": { "durationMS": 0.607999980449677, "detail": "Definitions" } },
{ "pid": 1, "tid": 1, "ts": 6097354.4921875, "dur": 10678.9999008179, "ph": "X", "name": "Convert", "args": { "durationMS": 10.6789999008179, "detail": "UnityEngine.InputLegacyModule" } },
{ "pid": 1, "tid": 1, "ts": 6097355.46875, "dur": 10677.99949646, "ph": "X", "name": "Code", "args": { "durationMS": 10.67799949646, "detail": "" } },
{ "pid": 1, "tid": 1, "ts": 6097364.2578125, "dur": 10668.999671936, "ph": "X", "name": "Methods", "args": { "durationMS": 10.668999671936, "detail": "Definitions" } },
{ "pid": 1, "tid": 1, "ts": 6111992.67578125, "dur": 1671.00012302399, "ph": "X", "name": "Convert", "args": { "durationMS": 1.67100012302399, "detail": "UnityEngine.Physics2DModule" } },
{ "pid": 1, "tid": 1, "ts": 6111994.62890625, "dur": 1668.99991035461, "ph": "X", "name": "Code", "args": { "durationMS": 1.66899991035461, "detail": "" } },
{ "pid": 1, "tid": 1, "ts": 6112003.41796875, "dur": 1659.9999666214, "ph": "X", "name": "Methods", "args": { "durationMS": 1.6599999666214, "detail": "Definitions" } },
{ "pid": 1, "tid": 1, "ts": 6118048.828125, "dur": 13085.000038147, "ph": "X", "name": "Convert", "args": { "durationMS": 13.085000038147, "detail": "UnityEngine.PhysicsModule" } },
{ "pid": 1, "tid": 1, "ts": 6118049.8046875, "dur": 13084.0005874634, "ph": "X", "name": "Code", "args": { "durationMS": 13.0840005874634, "detail": "" } },
{ "pid": 1, "tid": 1, "ts": 6118062.98828125, "dur": 13069.9996948242, "ph": "X", "name": "Methods", "args": { "durationMS": 13.0699996948242, "detail": "Definitions" } },
{ "pid": 1, "tid": 1, "ts": 6136203.61328125, "dur": 11806.999206543, "ph": "X", "name": "Convert", "args": { "durationMS": 11.806999206543, "detail": "UnityEngine.UIModule" } },
{ "pid": 1, "tid": 1, "ts": 6136206.0546875, "dur": 11803.9999008179, "ph": "X", "name": "Code", "args": { "durationMS": 11.8039999008179, "detail": "" } },
{ "pid": 1, "tid": 1, "ts": 6136220.21484375, "dur": 11789.999961853, "ph": "X", "name": "Methods", "args": { "durationMS": 11.789999961853, "detail": "Definitions" } },
{ "pid": 1, "tid": 1, "ts": 6152241.2109375, "dur": 34934.0019226074, "ph": "X", "name": "Convert", "args": { "durationMS": 34.9340019226074, "detail": "UnityEngine.UnityWebRequestModule" } },
{ "pid": 1, "tid": 1, "ts": 6152243.1640625, "dur": 34930.9997558594, "ph": "X", "name": "Code", "args": { "durationMS": 34.9309997558594, "detail": "" } },
{ "pid": 1, "tid": 1, "ts": 6152252.9296875, "dur": 34921.0014343262, "ph": "X", "name": "Methods", "args": { "durationMS": 34.9210014343262, "detail": "Definitions" } },
{ "pid": 1, "tid": 1, "ts": 6193297.8515625, "dur": 446.000009775162, "ph": "X", "name": "Convert", "args": { "durationMS": 0.446000009775162, "detail": "netstandard" } },
{ "pid": 1, "tid": 1, "ts": 6193298.828125, "dur": 444.000005722046, "ph": "X", "name": "Code", "args": { "durationMS": 0.444000005722046, "detail": "" } },
{ "pid": 1, "tid": 1, "ts": 6193306.15234375, "dur": 437.000006437302, "ph": "X", "name": "Methods", "args": { "durationMS": 0.437000006437302, "detail": "Definitions" } },
{ "pid": 1, "tid": 1, "ts": 6198061.03515625, "dur": 44876.9989013672, "ph": "X", "name": "Convert", "args": { "durationMS": 44.8769989013672, "detail": "JsonFx.Json" } },
{ "pid": 1, "tid": 1, "ts": 6198062.01171875, "dur": 44875.9994506836, "ph": "X", "name": "Code", "args": { "durationMS": 44.8759994506836, "detail": "" } },
{ "pid": 1, "tid": 1, "ts": 6198074.21875, "dur": 44863.9984130859, "ph": "X", "name": "Methods", "args": { "durationMS": 44.8639984130859, "detail": "Definitions" } },
{ "pid": 1, "tid": 1, "ts": 6247653.80859375, "dur": 52212.9974365234, "ph": "X", "name": "Convert", "args": { "durationMS": 52.2129974365234, "detail": "UnityEngine.AndroidJNIModule" } },
{ "pid": 1, "tid": 1, "ts": 6247654.78515625, "dur": 52210.9985351562, "ph": "X", "name": "Code", "args": { "durationMS": 52.2109985351562, "detail": "" } },
{ "pid": 1, "tid": 1, "ts": 6247666.9921875, "dur": 52198.9974975586, "ph": "X", "name": "Methods", "args": { "durationMS": 52.1989974975586, "detail": "Definitions" } },
{ "pid": 1, "tid": 1, "ts": 6304403.80859375, "dur": 29801.0005950928, "ph": "X", "name": "Convert", "args": { "durationMS": 29.8010005950928, "detail": "UnityEngine.GameCenterModule" } },
{ "pid": 1, "tid": 1, "ts": 6304404.78515625, "dur": 29798.999786377, "ph": "X", "name": "Code", "args": { "durationMS": 29.798999786377, "detail": "" } },
{ "pid": 1, "tid": 1, "ts": 6304423.828125, "dur": 29778.9993286133, "ph": "X", "name": "Methods", "args": { "durationMS": 29.7789993286133, "detail": "Definitions" } },
{ "pid": 1, "tid": 1, "ts": 6338272.94921875, "dur": 2392.99988746643, "ph": "X", "name": "Convert", "args": { "durationMS": 2.39299988746643, "detail": "UnityEngine.JSONSerializeModule" } },
{ "pid": 1, "tid": 1, "ts": 6338273.92578125, "dur": 2391.00003242493, "ph": "X", "name": "Code", "args": { "durationMS": 2.39100003242493, "detail": "" } },
{ "pid": 1, "tid": 1, "ts": 6338281.25, "dur": 2384.0000629425, "ph": "X", "name": "Methods", "args": { "durationMS": 2.3840000629425, "detail": "Definitions" } },
{ "pid": 1, "tid": 1, "ts": 6345766.11328125, "dur": 677289.001464844, "ph": "X", "name": "Convert", "args": { "durationMS": 677.289001464844, "detail": "UnityEngine.UI" } },
{ "pid": 1, "tid": 1, "ts": 6345768.06640625, "dur": 677286.010742188, "ph": "X", "name": "Code", "args": { "durationMS": 677.286010742188, "detail": "" } },
{ "pid": 1, "tid": 1, "ts": 6345839.84375, "dur": 677214.050292969, "ph": "X", "name": "Methods", "args": { "durationMS": 677.214050292969, "detail": "Definitions" } },
{ "pid": 1, "tid": 1, "ts": 7027246.09375, "dur": 5006.99996948242, "ph": "X", "name": "Convert", "args": { "durationMS": 5.00699996948242, "detail": "UnityEngine.UnityAnalyticsModule" } },
{ "pid": 1, "tid": 1, "ts": 7027247.0703125, "dur": 5006.00004196167, "ph": "X", "name": "Code", "args": { "durationMS": 5.00600004196167, "detail": "" } },
{ "pid": 1, "tid": 1, "ts": 7027254.8828125, "dur": 4997.00021743774, "ph": "X", "name": "Methods", "args": { "durationMS": 4.99700021743774, "detail": "Definitions" } },
{ "pid": 1, "tid": 1, "ts": 7036829.58984375, "dur": 3516.00003242493, "ph": "X", "name": "Convert", "args": { "durationMS": 3.51600003242493, "detail": "UnityEngine.UnityWebRequestWWWModule" } },
{ "pid": 1, "tid": 1, "ts": 7036831.0546875, "dur": 3513.99993896484, "ph": "X", "name": "Code", "args": { "durationMS": 3.51399993896484, "detail": "" } },
{ "pid": 1, "tid": 1, "ts": 7036835.9375, "dur": 3508.99982452393, "ph": "X", "name": "Methods", "args": { "durationMS": 3.50899982452393, "detail": "Definitions" } },
{ "pid": 1, "tid": 1, "ts": 7044868.65234375, "dur": 7119.99988555908, "ph": "X", "name": "Convert", "args": { "durationMS": 7.11999988555908, "detail": "UnityEngine.VideoModule" } },
{ "pid": 1, "tid": 1, "ts": 7044871.09375, "dur": 7117.00010299683, "ph": "X", "name": "Code", "args": { "durationMS": 7.11700010299683, "detail": "" } },
{ "pid": 1, "tid": 1, "ts": 7044884.27734375, "dur": 7104.00009155273, "ph": "X", "name": "Methods", "args": { "durationMS": 7.10400009155273, "detail": "Definitions" } },
{ "pid": 1, "tid": 1, "ts": 7056518.06640625, "dur": 460.00000834465, "ph": "X", "name": "Convert", "args": { "durationMS": 0.46000000834465, "detail": "UnityEngine" } },
{ "pid": 1, "tid": 1, "ts": 7056520.01953125, "dur": 456.999987363815, "ph": "X", "name": "Code", "args": { "durationMS": 0.456999987363815, "detail": "" } },
{ "pid": 1, "tid": 1, "ts": 7056526.85546875, "dur": 449.999988079071, "ph": "X", "name": "Methods", "args": { "durationMS": 0.449999988079071, "detail": "Definitions" } },
{ "pid": 1, "tid": 1, "ts": 7062339.35546875, "dur": 367799.987792969, "ph": "X", "name": "Convert", "args": { "durationMS": 367.799987792969, "detail": "Assembly-CSharp" } },
{ "pid": 1, "tid": 1, "ts": 7062341.30859375, "dur": 367798.034667969, "ph": "X", "name": "Code", "args": { "durationMS": 367.798034667969, "detail": "" } },
{ "pid": 1, "tid": 1, "ts": 7062389.6484375, "dur": 367748.992919922, "ph": "X", "name": "Methods", "args": { "durationMS": 367.748992919922, "detail": "Definitions" } },
{ "pid": 1, "tid": 1, "ts": 7430145.01953125, "dur": 2624977.78320312, "ph": "X", "name": "WriteGenerics", "args": { "durationMS": 2624.97778320312, "detail": "" } },
{ "pid": 1, "tid": 1, "ts": 7436968.26171875, "dur": 12605.9999465942, "ph": "X", "name": "Arrays Definitions", "args": { "durationMS": 12.6059999465942, "detail": "" } },
{ "pid": 1, "tid": 1, "ts": 7449976.5625, "dur": 649154.968261719, "ph": "X", "name": "GenericInstanceMethods", "args": { "durationMS": 649.154968261719, "detail": "" } },
{ "pid": 1, "tid": 1, "ts": 8099131.8359375, "dur": 1673819.09179688, "ph": "X", "name": "GenericInstanceTypes", "args": { "durationMS": 1673.81909179688, "detail": "" } },
{ "pid": 1, "tid": 1, "ts": 9773263.671875, "dur": 281847.015380859, "ph": "X", "name": "GenericComDefinitions", "args": { "durationMS": 281.847015380859, "detail": "" } },
{ "pid": 1, "tid": 1, "ts": 10066551.7578125, "dur": 314592.987060547, "ph": "X", "name": "MetadataCollector", "args": { "durationMS": 314.592987060547, "detail": "" } },
{ "pid": 1, "tid": 1, "ts": 10069311.5234375, "dur": 10397.9997634888, "ph": "X", "name": "UpdateEmptyTokens", "args": { "durationMS": 10.3979997634888, "detail": "" } },
{ "pid": 1, "tid": 1, "ts": 10082040.0390625, "dur": 12875, "ph": "X", "name": "ValidateTokens", "args": { "durationMS": 12.875, "detail": "" } },
{ "pid": 1, "tid": 1, "ts": 10381438.4765625, "dur": 2480.00001907349, "ph": "X", "name": "Write COM Callable Wrappers", "args": { "durationMS": 2.48000001907349, "detail": "" } },
{ "pid": 1, "tid": 1, "ts": 10383486.328125, "dur": 430.000007152557, "ph": "X", "name": "Collect implemented projected interfaces by COM Callable Wrappers", "args": { "durationMS": 0.430000007152557, "detail": "" } },
{ "pid": 1, "tid": 1, "ts": 10383917.96875, "dur": 2018112.06054688, "ph": "X", "name": "Metadata", "args": { "durationMS": 2018.11206054688, "detail": "Global" } },
{ "pid": 1, "tid": 1, "ts": 10462070.3125, "dur": 375722.991943359, "ph": "X", "name": "Attributes", "args": { "durationMS": 375.722991943359, "detail": "" } },
{ "pid": 1, "tid": 1, "ts": 10989828.125, "dur": 326374.0234375, "ph": "X", "name": "WriteCodeRegistration", "args": { "durationMS": 326.3740234375, "detail": "" } },
{ "pid": 1, "tid": 1, "ts": 11048712.890625, "dur": 6714.99967575073, "ph": "X", "name": "GenericContextCollector", "args": { "durationMS": 6.71499967575073, "detail": "Collect" } },
{ "pid": 1, "tid": 1, "ts": 11080197.265625, "dur": 356.99999332428, "ph": "X", "name": "GenericContextCollector", "args": { "durationMS": 0.35699999332428, "detail": "Collect" } },
{ "pid": 1, "tid": 1, "ts": 11141079.1015625, "dur": 4568.99976730347, "ph": "X", "name": "ReversePInvokerWrapperTable", "args": { "durationMS": 4.56899976730347, "detail": "Il2CppReversePInvokeWrapperTable.cpp" } },
{ "pid": 1, "tid": 1, "ts": 11146209.9609375, "dur": 86560.9970092773, "ph": "X", "name": "GenericMethodPointerTable", "args": { "durationMS": 86.5609970092773, "detail": "Il2CppGenericMethodPointerTable.cpp" } },
{ "pid": 1, "tid": 1, "ts": 11233144.53125, "dur": 66960.9985351562, "ph": "X", "name": "InvokerTable", "args": { "durationMS": 66.9609985351562, "detail": "Il2CppInvokerTable.cpp" } },
{ "pid": 1, "tid": 1, "ts": 11301419.921875, "dur": 10279.0002822876, "ph": "X", "name": "InteropDataTable", "args": { "durationMS": 10.2790002822876, "detail": "Il2CppInteropDataTable.cpp" } },
{ "pid": 1, "tid": 1, "ts": 11316203.125, "dur": 1085826.04980469, "ph": "X", "name": "WriteMetadata", "args": { "durationMS": 1085.82604980469, "detail": "" } },
{ "pid": 1, "tid": 1, "ts": 11414438.4765625, "dur": 4473.99997711182, "ph": "X", "name": "Metadata", "args": { "durationMS": 4.47399997711182, "detail": "Collect string literals" } },
{ "pid": 1, "tid": 1, "ts": 11519304.6875, "dur": 66694.9996948242, "ph": "X", "name": "GenericClasses", "args": { "durationMS": 66.6949996948242, "detail": "" } },
{ "pid": 1, "tid": 1, "ts": 11586000, "dur": 26077.9991149902, "ph": "X", "name": "GenericInst2", "args": { "durationMS": 26.0779991149902, "detail": "" } },
{ "pid": 1, "tid": 1, "ts": 11612081.0546875, "dur": 266654.022216797, "ph": "X", "name": "GenericMethods", "args": { "durationMS": 266.654022216797, "detail": "" } },
{ "pid": 1, "tid": 1, "ts": 11878733.3984375, "dur": 193705.993652344, "ph": "X", "name": "Il2CppTypes", "args": { "durationMS": 193.705993652344, "detail": "" } },
{ "pid": 1, "tid": 1, "ts": 12072441.40625, "dur": 46873.0010986328, "ph": "X", "name": "GenericMethods", "args": { "durationMS": 46.8730010986328, "detail": "" } },
{ "pid": 1, "tid": 1, "ts": 12119314.453125, "dur": 123822.998046875, "ph": "X", "name": "CompilerCalculateTypeValues", "args": { "durationMS": 123.822998046875, "detail": "" } },
{ "pid": 1, "tid": 1, "ts": 12243136.71875, "dur": 3263.00001144409, "ph": "X", "name": "Registration", "args": { "durationMS": 3.26300001144409, "detail": "" } },
{ "pid": 1, "tid": 1, "ts": 12246564.453125, "dur": 6934.99994277954, "ph": "X", "name": "StringLiteralWriter", "args": { "durationMS": 6.93499994277954, "detail": "" } },
{ "pid": 1, "tid": 1, "ts": 12253799.8046875, "dur": 1330.00004291534, "ph": "X", "name": "Metadata Strings", "args": { "durationMS": 1.33000004291534, "detail": "" } },
{ "pid": 1, "tid": 1, "ts": 12255129.8828125, "dur": 2585.00003814697, "ph": "X", "name": "Events", "args": { "durationMS": 2.58500003814697, "detail": "" } },
{ "pid": 1, "tid": 1, "ts": 12257716.796875, "dur": 3900.00009536743, "ph": "X", "name": "Properties", "args": { "durationMS": 3.90000009536743, "detail": "" } },
{ "pid": 1, "tid": 1, "ts": 12261617.1875, "dur": 52422.0008850098, "ph": "X", "name": "Methods", "args": { "durationMS": 52.4220008850098, "detail": "" } },
{ "pid": 1, "tid": 1, "ts": 12314039.0625, "dur": 957.000017166138, "ph": "X", "name": "Parameter Default Values", "args": { "durationMS": 0.957000017166138, "detail": "" } },
{ "pid": 1, "tid": 1, "ts": 12314997.0703125, "dur": 1335.99996566772, "ph": "X", "name": "Field Default Values", "args": { "durationMS": 1.33599996566772, "detail": "" } },
{ "pid": 1, "tid": 1, "ts": 12316333.984375, "dur": 391.000002622604, "ph": "X", "name": "Field and Parameter Default Values Data", "args": { "durationMS": 0.391000002622604, "detail": "" } },
{ "pid": 1, "tid": 1, "ts": 12316725.5859375, "dur": 642.000019550323, "ph": "X", "name": "Field Marshaled Sizes", "args": { "durationMS": 0.642000019550323, "detail": "" } },
{ "pid": 1, "tid": 1, "ts": 12317367.1875, "dur": 12984.0002059937, "ph": "X", "name": "Parameters", "args": { "durationMS": 12.9840002059937, "detail": "" } },
{ "pid": 1, "tid": 1, "ts": 12330351.5625, "dur": 8232.99980163574, "ph": "X", "name": "Fields", "args": { "durationMS": 8.23299980163574, "detail": "" } },
{ "pid": 1, "tid": 1, "ts": 12338584.9609375, "dur": 1508.00001621246, "ph": "X", "name": "Generic Parameters", "args": { "durationMS": 1.50800001621246, "detail": "" } },
{ "pid": 1, "tid": 1, "ts": 12340095.703125, "dur": 703.999996185303, "ph": "X", "name": "Generic Parameter Constraints", "args": { "durationMS": 0.703999996185303, "detail": "" } },
{ "pid": 1, "tid": 1, "ts": 12340799.8046875, "dur": 1345.99995613098, "ph": "X", "name": "Generic Containers", "args": { "durationMS": 1.34599995613098, "detail": "" } },
{ "pid": 1, "tid": 1, "ts": 12342145.5078125, "dur": 439.000010490417, "ph": "X", "name": "Nested Types", "args": { "durationMS": 0.439000010490417, "detail": "" } },
{ "pid": 1, "tid": 1, "ts": 12342585.9375, "dur": 435.000002384186, "ph": "X", "name": "Interfaces", "args": { "durationMS": 0.435000002384186, "detail": "" } },
{ "pid": 1, "tid": 1, "ts": 12343019.53125, "dur": 1050.99999904633, "ph": "X", "name": "VTables", "args": { "durationMS": 1.05099999904633, "detail": "" } },
{ "pid": 1, "tid": 1, "ts": 12344071.2890625, "dur": 1364.99989032745, "ph": "X", "name": "Interface Offsets", "args": { "durationMS": 1.36499989032745, "detail": "" } },
{ "pid": 1, "tid": 1, "ts": 12345436.5234375, "dur": 39290.0009155273, "ph": "X", "name": "Type Definitions", "args": { "durationMS": 39.2900009155273, "detail": "" } },
{ "pid": 1, "tid": 1, "ts": 12384729.4921875, "dur": 4713.99974822998, "ph": "X", "name": "Images", "args": { "durationMS": 4.71399974822998, "detail": "" } },
{ "pid": 1, "tid": 1, "ts": 12389442.3828125, "dur": 2111.00006103516, "ph": "X", "name": "Assemblies", "args": { "durationMS": 2.11100006103516, "detail": "" } },
{ "pid": 1, "tid": 1, "ts": 12391556.640625, "dur": 703.000009059906, "ph": "X", "name": "Metadata Usage Lists", "args": { "durationMS": 0.703000009059906, "detail": "" } },
{ "pid": 1, "tid": 1, "ts": 12392258.7890625, "dur": 1808.9998960495, "ph": "X", "name": "Metadata Usage Pairs", "args": { "durationMS": 1.8089998960495, "detail": "" } },
{ "pid": 1, "tid": 1, "ts": 12394398.4375, "dur": 524.999976158142, "ph": "X", "name": "Referenced Assemblies", "args": { "durationMS": 0.524999976158142, "detail": "" } },
{ "pid": 1, "tid": 1, "ts": 12394922.8515625, "dur": 1516.99995994568, "ph": "X", "name": "Attribute Types Ranges", "args": { "durationMS": 1.51699995994568, "detail": "" } },
{ "pid": 1, "tid": 1, "ts": 12396439.453125, "dur": 785.000026226044, "ph": "X", "name": "Attribute Types", "args": { "durationMS": 0.785000026226044, "detail": "" } },
{ "pid": 1, "tid": 1, "ts": 12397225.5859375, "dur": 342.000007629395, "ph": "X", "name": "Unresolved Virtual Call Parameter Types", "args": { "durationMS": 0.342000007629395, "detail": "" } },
{ "pid": 1, "tid": 1, "ts": 12397567.3828125, "dur": 1013.00001144409, "ph": "X", "name": "Unresolved Virtual Call Parameter Ranges", "args": { "durationMS": 1.01300001144409, "detail": "" } },
{ "pid": 1, "tid": 1, "ts": 12398582.03125, "dur": 612.999975681305, "ph": "X", "name": "Windows Runtime type names", "args": { "durationMS": 0.612999975681305, "detail": "" } },
{ "pid": 1, "tid": 1, "ts": 12399196.2890625, "dur": 1840.0000333786, "ph": "X", "name": "Exported Types", "args": { "durationMS": 1.8400000333786, "detail": "" } }
],
"meta_datetime": "09/18/2019 14:32:11",
"meta_command_line_args": "/Applications/Unity/Hub/Editor/2019.2.4f1/Unity.app/Contents/il2cpp/build/il2cppcore/il2cppcore.dll --convert-to-cpp --emit-null-checks --enable-array-bounds-check --dotnetprofile=unityaot --profiler-report --map-file-parser=/Applications/Unity/Hub/Editor/2019.2.4f1/Unity.app/Contents/Tools/MapFileParser/MapFileParser --directory=/Users/jamesbenson/Projects/tedx/Temp/StagingArea/Data/Managed --generatedcppdir=/Users/jamesbenson/Projects/tedx/Temp/il2cppOutput/il2cppOutput",
"meta_cpu_count": "12"}
